<?xml version="1.0" encoding="UTF-8" standalone="no"?>
<!DOCTYPE svg PUBLIC "-//W3C//DTD SVG 1.1//EN" "http://www.w3.org/Graphics/SVG/1.1/DTD/svg11.dtd">
<svg width="100%" height="100%" viewBox="0 0 24 24" version="1.1" xmlns="http://www.w3.org/2000/svg" xmlns:xlink="http://www.w3.org/1999/xlink" xml:space="preserve" xmlns:serif="http://www.serif.com/" style="fill-rule:evenodd;clip-rule:evenodd;stroke-linejoin:round;stroke-miterlimit:2;">
    <rect x="0" y="0" width="24" height="24" style="fill:none;fill-rule:nonzero;"/>
    <g transform="matrix(1,0,0,1,3.66836,-2.56163)">
        <path d="M16.01,11L4,11L4,13L16.01,13L16.01,16L20,12L16.01,8L16.01,11Z" style="fill:rgb(26,26,26);fill-rule:nonzero;"/>
    </g>
    <g transform="matrix(-1,0,0,1,20.3316,1.43837)">
        <path d="M16.01,11L4,11L4,13L16.01,13L16.01,16L20,12L16.01,8L16.01,11Z" style="fill:rgb(26,26,26);fill-rule:nonzero;"/>
    </g>
</svg>
